<svg xmlns="http://www.w3.org/2000/svg" fill="none" viewBox="0 0 58 23">
  <path fill="url(#a)" d="M11.2 11c.3-1.4-.2-2.4-1.1-3-.9-.6-2-.7-3-.1L2.2 10c-1.2.6-1.7 2-1.2 3.1a2.3 2.3 0 0 0 3.1 1.2l.6-.3-1 5.6c-.3 1.6.8 3 2.3 3.3 1.5.3 3-.8 3.3-2.3l1.8-9.6Z"/>
  <path fill="url(#b)" d="M54 7.6a6 6 0 0 0-6.2 3.3l.1-1c.5-1.9-.3-2.4-1.7-2.4h-1.7c-1.7 0-2 1-2.3 2l-2 11.3c-.1.8 0 2.1 1.5 2.1H44c1.4 0 1.7-1.1 1.9-2.2l1-5.4c.2-1.3.4-1.9.8-2.3.7-.8 2-1.1 2.9-.4.5.5.7 1.2.6 2.3l-1 6c-.2 1.2.3 2 1.4 2H54c1.4 0 1.7-1 1.9-2.2l1.4-7.4C58 10.7 57 8 54 7.6Z"/>
  <circle cx="38.4" cy="3.3" r="2.8" fill="url(#c)"/>
  <path fill="url(#d)" d="M38.6 20.7c-.2 1.2-.5 2.2-1.9 2.2h-2.5c-1.1 0-1.6-.9-1.3-2l2-11.4c.2-1.3.7-2 2.2-2H39c1.6 0 2 .8 1.6 2.4l-2 10.8Z"/>
  <path fill="url(#e)" d="M11.7 7.5c.6.7 1.4 1.7 1 3.9l-1 5.2.2 4.1c0 1.6.8 2.2 2 2.2h3.2c1 0 1.4-.8 1.8-1.7l2.4-6 .2 5.7c0 1.3.7 2 1.8 2H27c1 0 1.4-.6 1.9-1.7l4.6-11.4c.5-1.1.2-2.3-1-2.3H30c-.8 0-1.4.3-1.7 1.1l-3.1 7.6-.3-6.8c0-1.4-.7-1.9-1.6-1.9H21c-1 0-1.5.4-1.7 1l-3.1 7.8-.3-7c0-1.3-.5-1.8-1.5-1.8h-2.7Z"/>
  <defs>
    <linearGradient id="a" x1="12.1" x2="12.1" y1="25.1" y2="7.1" gradientUnits="userSpaceOnUse">
      <stop stop-color="#0167CA"/>
      <stop offset="1" stop-color="#38A8FA"/>
    </linearGradient>
    <linearGradient id="b" x1="58" x2="58" y1="23.3" y2="7.1" gradientUnits="userSpaceOnUse">
      <stop stop-color="#C8C7C7"/>
      <stop offset=".1" stop-color="#D6D5D5"/>
      <stop offset=".2" stop-color="#E8E8E8"/>
      <stop offset=".4" stop-color="#F5F5F5"/>
      <stop offset=".6" stop-color="#FDFDFD"/>
      <stop offset="1" stop-color="#fff"/>
    </linearGradient>
    <linearGradient id="c" x1="41.7" x2="41.7" y1="6.8" y2=".3" gradientUnits="userSpaceOnUse">
      <stop stop-color="#0167CA"/>
      <stop offset="1" stop-color="#38A8FA"/>
    </linearGradient>
    <linearGradient id="d" x1="40.9" x2="40.9" y1="23.4" y2="7.2" gradientUnits="userSpaceOnUse">
      <stop stop-color="#C8C7C7"/>
      <stop offset=".1" stop-color="#D6D5D5"/>
      <stop offset=".2" stop-color="#E8E8E8"/>
      <stop offset=".4" stop-color="#F5F5F5"/>
      <stop offset=".6" stop-color="#FDFDFD"/>
      <stop offset="1" stop-color="#fff"/>
    </linearGradient>
    <linearGradient id="e" x1="34.1" x2="34.1" y1="23.3" y2="7.2" gradientUnits="userSpaceOnUse">
      <stop stop-color="#C8C7C7"/>
      <stop offset=".1" stop-color="#D6D5D5"/>
      <stop offset=".2" stop-color="#E8E8E8"/>
      <stop offset=".4" stop-color="#F5F5F5"/>
      <stop offset=".6" stop-color="#FDFDFD"/>
      <stop offset="1" stop-color="#fff"/>
    </linearGradient>
  </defs>
</svg>
